5,a,1 Syllable,a:  /ă/ or /æ/,,,,,,,,,,,,,,,ə: /ə/&& Syllable Type: Open&& ə: /ə/&& Syllable Type: Open
783,ability,4 Syllables,a:  /ă/ or /æ/,y: /ī/ or /aɪ/,f: /f/,,,,,,,,,,,,,Noun&& y: /ē/ or /i/&& ə: /ə/&& Syllable Division: VC/V
386,able,2 Syllables,,,,,,,,,,,,,,,,Syllable Type: Open&& Syllable Type: C+le&& Syllable Division: C+le
1983,abortion,3 Syllables,,,,,,,,,,,,,,,,ə: /ə/&& -ion&& Syllable Division: VC/V&& Syllable Division: VC/CV&& Syllable Type: Open&& Syllable Type: R-Controlled&& t + ion
46,about,2 Syllables,,,,,,,,,,,,,,,,ə: /ə/&& Syllable Division: V/CV&& Syllable Type: Open&& Syllable Type: Vowel Team&& ou: /ō/ or /oʊ/&& Preposition
896,above,2 Syllables,,,,,,,,,,,,,,,,ə: /ə/&& Syllable Division: V/CV&& Preposition
1152,absolutely,4 Syllables,,,,,,,,,,,,,,,,-ly&& Syllable Division: VC/CV&& Syllable Division: V/CV&& Syllable Type: Closed&& Syllable Type: Open&& Syllable Division: VC/Cve&& Syllable Type: Silent <e>&& Adverb
1548,abuse,2 Syllables,,,,,,,,,,,,,,,,ə: /ə/&& Syllable Division: V/CV&& Syllable Type: Open&& Syllable Type: Silent <e>&& u-e: /ū/ or /ju/&& s: /z/&& Noun&& Verb&& Suffixing Convention: Change <y> to <i>
1473,academic,4 Syllables,,,,,,,,,,,,,,,,ə: /ə/&& Syllable Division: V/CV&& Syllable Division: VC/V&& a: /ă/ or /æ/&& e: /ĕ/ or /ɛ/&& i: /ĭ/ or /ɪ/
767,accept,2 Syllables,,,,,,,,,,,,,,,,"ad- (al-, ac-, af-, ap-, ar-, as-, an-, ag-, at-)&& -cept-/-ceiv(e)-&& Syllable Division: VC/CV&& Syllable Type: Closed&& c(e): /s/&& Verb&& ad- (al-, ac-, af-, ap-, ar-, as-, an-, ag-, at-)&& -cept-/-ceiv(e)-&& Syllable Division: VC/CV&& Syllable Type: Closed&& c(e): /s/&& Verb&& e: /ĕ/ or /ɛ/"
1117,access,2 Syllables,,,,,,,,,,,,,,,,"ad- (al-, ac-, af-, ap-, ar-, as-, an-, ag-, at-)&& -ced(e)-/-ceed-/-cess-&& Syllable Division: VC/CV&& Syllable Type: Closed&& c(e): /s/&& FLSZ: ff, ll, ss, zz&& e: /ĕ/ or /ɛ/&& a: /ă/ or /æ/"
1720,accident,3 Syllables,,,,,,,,,,,,,,,,"ə: /ə/&& ad- (al-, ac-, af-, ap-, ar-, as-, an-, ag-, at-)&& -cis(e)-/-cid(e)-&& Suffixing Convention: Drop <e>&& Syllable Division: VC/CV&& Syllable Division: V/CV&& Syllable Type: Closed&& c(i): /s/&& i: /ĭ/ or /ɪ/&& a: /ă/ or /æ/&& e: /ĕ/ or /ɛ/&& Noun&& ə: /ə/&& ad- (al-, ac-, af-, ap-, ar-, as-, an-, ag-, at-)&& Suffixing Convention: Drop <e>&& Syllable Division: VC/CV&& Syllable Division: V/CV&& Syllable Type: Closed&& c(i): /s/&& i: /ĭ/ or /ɪ/&& a: /ă/ or /æ/&& e: /ĕ/ or /ɛ/&& Noun"
479,according,3 Syllables,,,,,,,,,,,,,,,,"ə: /ə/&& ad- (al-, ac-, af-, ap-, ar-, as-, an-, ag-, at-)&& -ing&& Syllable Division: VC/CV&& Syllable Type: Closed&& Syllable Type: R-Controlled&& or: /ôr/ or /ɔr/&& ng: /NG/ or /ŋ/&& Adverb"
1075,account,2 Syllables,,,,,,,,,,,,,,,,"Syllable Division: VC/CV&& ad- (al-, ac-, af-, ap-, ar-, as-, an-, ag-, at-)&& ə: /ə/&& Syllable Type: Closed&& Syllable Type: Vowel Team&& ou: /ou/ or /aʊ/&& Noun"
1155,achieve,2 Syllables,,,,,,,,,,,,,,,,"ə: /ə/&& ad- (a-, al-, ac-, af-, ap-, ar-, as-, an-, ag-, at-)&& Syllable Division: V/CV&& Syllable Type: Open&& Syllable Type: Vowel Team&& ie: /ē/ or /i/&& ch: /CH/ or /tʃ/&& Verb"
1664,acknowledge,3 Syllables,,,,,,,,,,,,,,,,dge: /j/ or /dʒ/&& ə: /ə/&& Syllable Division: VC/CV&& Syllable Type: Closed&& Syllable Type: Vowel Team&& kn: /n/&& a: /ă/ or /æ/&& e: /ĕ/ or /ɛ/&& Verb
378,across,2 Syllables,,,,,,,,,,,,,,,,"a-&& ə: /ə/&& Syllable Division: VC/CV&& Syllable Type: Closed&& o: /ŏ/ or /ɑ/&& FLSZ: ff, ll, ss, zz&& Preposition"
840,act,1 Syllable,,,,,,,,,,,,,,,,Syllable Type: Closed&& a: /ă/ or /æ/&& -act-&& Verb&& Noun&& c: /k/&& t: /t/
503,action,2 Syllables,,,,,,,,,,,,,,,,-ion&& -act-&& Syllable Division: VC/CV&& Syllable Type: Closed&& Noun&& t + ion
1451,active,2 Syllables,,,,,,,,,,,,,,,,-act-&& Syllable Division: VC/CV&& a: /ă/ or /æ/&& Syllable Type: Closed&& i: /ĭ/ or /ɪ/&& Adjective
538,activity,4 Syllables,,,,,,,,,,,,,,,,-act-&& Syllable Division: VC/CV&& Syllable Division: VC/V&& y: /ē/ or /i/&& Noun&& Suffixing Convention: Drop <e>&& Noun
1507,actor,2 Syllables,,,,,,,,,,,,,,,,-act-&& Syllable Division: VC/CV&& Syllable Type: Closed&& Syllable Type: R-Controlled&& a: /ă/ or /æ/&& or: /ər/&& Noun
1752,actual,3 Syllables,,,,,,,,,,,,,,,,-act-&& Syllable Division: VC/CV&& Syllable Division: V/V&& Adjective&& Latin Connecting Vowels&& a: /ă/ or /æ/&& Syllable Type: Closed&& Syllable Type: Open
397,actually,4 Syllables,,,,,,,,,,,,,,,,ə: /ə/&& -ly&& -act-&& Syllable Division: VC/CV&& Syllable Division: V/V&& Syllable Type: Closed&& Syllable Type: Open&& a: /ă/ or /æ/&& y: /ē/ or /i/&& Adverb&& Latin Connecting Vowels
1761,ad,1 Syllable,,,,,,,,,,,,,,,,Syllable Type: Closed&& a: /ă/ or /æ/&& d: /d/&& Noun
341,add,1 Syllable,,,,,,,,,,,,,,,,"ad- (a-, al-, ac-, af-, ap-, ar-, as-, an-, ag-, at-)&& Syllable Type: Closed&& a: /ă/ or /æ/&& d: /d/&& Verb"
1326,additional,4 Syllables,,,,,,,,,,,,,,,,"ad- (a-, al-, ac-, af-, ap-, ar-, as-, an-, ag-, at-)&& -ion&& t + ion&& Syllable Division: VC/CV&& Syllable Type: Closed&& Adjective&& ə: /ə/&& i: /ĭ/ or /ɪ/"
1031,address,2 Syllables,,,,,,,,,,,,,,,,"ad- (a-, al-, ac-, af-, ap-, ar-, as-, an-, ag-, at-)&& Syllable Division: VC/CV&& Syllable Type: Closed&& a: /ă/ or /æ/&& e: /ĕ/ or /ɛ/&& FLSZ: ff, ll, ss, zz&& Noun&& Verb"
636,administration,5+ Syllables,,,,,,,,,,,,,,,,"ə: /ə/&& ad- (a-, al-, ac-, af-, ap-, ar-, as-, an-, ag-, at-)&& -ion&& t + ion&& Syllable Division: VC/CV&& Syllable Division: VC/V&& Syllable Division: V/CV&& Syllable Type: Closed&& Syllable Type: Open&& a: /ă/ or /æ/&& i: /ĭ/ or /ɪ/&& ə: /ə/&& Noun&& Suffixing Convention: Drop <e>"
1093,admit,2 Syllables,,,,,,,,,,,,,,,,"ə: /ə/&& ad- (a-, al-, ac-, af-, ap-, ar-, as-, an-, ag-, at-)&& -mit-/-miss-&& Syllable Division: VC/CV&& Syllable Type: Closed&& a: /ă/ or /æ/&& i: /ĭ/ or /ɪ/&& Verb"
1641,adopt,2 Syllables,,,,,,,,,,,,,,,,"ə: /ə/&& ad- (a-, al-, ac-, af-, ap-, ar-, as-, an-, ag-, at-)&& Syllable Division: V/CV&& Syllable Type: Open&& Syllable Type: Closed&& ə: /ə/&& o: /ŏ/ or /ɑ/&& Verb&& VOWELS VOWELS VOWELS VOWELS&& ə: /ə/&& ad- (a-, al-, ac-, af-, ap-, ar-, as-, an-, ag-, at-)&& Syllable Division: V/CV&& Syllable Type: Open&& Syllable Type: Closed&& ə: /ə/&& o: /ŏ/ or /ɑ/&& Verb"
972,adult,2 Syllables,,,,,,,,,,,,,,,,"ad- (a-, al-, ac-, af-, ap-, ar-, as-, an-, ag-, at-)&& ə: /ə/&& Syllable Division: V/CV&& Syllable Type: Open&& Syllable Type: Closed&& u: /ŭ/ or /ə/&& Syllable Division: VC/V&& Adjective&& Noun"
1308,advantage,3 Syllables,,,,,,,,,,,,,,,,ə: /ə/&& Syllable Division: VC/CV&& a: /ă/ or /æ/&& Noun&& Verb
1650,advice,2 Syllables,,,,,,,,,,,,,,,,"Noun&& ə: /ə/&& ad- (a-, al-, ac-, af-, ap-, ar-, as-, an-, ag-, at-)&& Syllable Division: VC/CV&& Syllable Type: Closed&& Syllable Type: Silent <e>&& a: /ă/ or /æ/&& i-e: /ī/ or /aɪ/&& c(e): /s/&&"
1373,affair,2 Syllables,,,,,,,,,,,,,,,,"ad- (a-, al-, ac-, af-, ap-, ar-, as-, an-, ag-, at-)&& Syllable Division: VC/CV&& Syllable Type: Closed&& Syllable Type: Vowel Team&& ai: /ā/ or /eɪ/&& Noun"
966,affect,2 Syllables,,,,,,,,,,,,,,,,"ad- (a-, al-, ac-, af-, ap-, ar-, as-, an-, ag-, at-)&& Syllable Division: VC/CV&& Syllable Type: Closed&& Verb&& Noun&& ə: /ə/&& a: /ă/ or /æ/&& e: /ĕ/ or /ɛ/"
1860,afford,2 Syllables,,,,,,,,,,,,,,,,"ad- (a-, al-, ac-, af-, ap-, ar-, as-, an-, ag-, at-)&& Syllable Division: VC/CV&& Syllable Type: Closed&& Syllable Type: R-Controlled&& ə: /ə/&& a: /ă/ or /æ/&& or: /ôr/ or /ɔr/&& Verb"
1407,afraid,2 Syllables,,,,,,,,,,,,,,,,"ad- (a-, al-, ac-, af-, ap-, ar-, as-, an-, ag-, at-)&& Syllable Division: V/CV&& Syllable Type: Open&& Syllable Type: Vowel Team&& ə: /ə/&& ai: /ā/ or /eɪ/&& Adjective"
1207,African,3 Syllables,,,,,,,,,,,,,,,,ə: /ə/&& Syllable Division: VC/V&& Syllable Division: VC/CV&& Syllable Type: Closed&& a: /ă/ or /æ/&& i: /ĭ/ or /ɪ/&& Adjective
120,after,2 Syllables,,,,,,,,,,,,,,,,Syllable Division: VC/CV&& Syllable Type: Closed&& Syllable Type: R-Controlled&& a: /ă/ or /æ/&& er: /ər/&& Preposition&& Adjective
1195,afternoon,3 Syllables,,,,,,,,,,,,,,,,Syllable Division: VC/CV&& Syllable Type: Closed&& Syllable Type: R-Controlled&& Syllable Type: Vowel Team&& er: /ər/&& oo: /o͞o/ or /u/&& Noun&& Compound Words
184,again,2 Syllables,,,,,,,,,,,,,,,,Syllable Division: V/CV&& Syllable Type: Open&& Syllable Type: Vowel Team&& ə: /ə/&& Adverb&& Syllable Division: V/CV&& Syllable Type: Open&& Syllable Type: Vowel Team&& ə: /ə/&& Adverb
180,against,2 Syllables,,,,,,,,,,,,,,,,Preposition&& Syllable Division: V/CV&& Syllable Type: Open&& Syllable Type: Vowel Team&& ə: /ə/&& && Preposition&& Syllable Division: V/CV&& Syllable Type: Open&& Syllable Type: Vowel Team&& ə: /ə/
387,age,1 Syllable,,,,,,,,,,,,,,,,Syllable Type: Silent <e>&& a-e: /ā/ or /eɪ/&& g(e): /j/ or /dʒ/&& Noun&& Verb
695,agency,3 Syllables,,,,,,,,,,,,,,,,ə: /ə/&& Syllable Division: V/CV&& Syllable Division: VC/CV&& Syllable Type: Open&& Syllable Type: Closed&& g(e): /j/ or /dʒ/&& ə: /ə/&& c(y): /s/&& y: /ē/ or /i/&& Noun
1023,agent,2 Syllables,,,,,,,,,,,,,,,,Syllable Division: V/CV&& Syllable Type: Open&& Syllable Type: Closed&& g(e): /j/ or /dʒ/&& e: /ĕ/ or /ɛ/&& Noun
317,ago,2 Syllables,,,,,,,,,,,,,,,,"ad- (a-, al-, ac-, af-, ap-, ar-, as-, an-, ag-, at-)&& a-&& Syllable Division: V/CV&& Syllable Type: Open&& ə: /ə/&& Adjective"
515,agree,2 Syllables,,,,,,,,,,,,,,,,"ə: /ə/&& Syllable Division: VC/V&& Syllable Division: V/CV&& Syllable Type: Closed&& Syllable Type: Open&& Syllable Type: Vowel Team&& ad- (a-, al-, ac-, af-, ap-, ar-, as-, an-, ag-, at-)&& -duc(e)-/-duct-&& a-&& ee: /ē/ or /i/&&"
1063,agreement,3 Syllables,,,,,,,,,,,,,,,,"ə: /ə/&& Syllable Division: VC/V&& Syllable Division: V/CV&& Syllable Type: Closed&& Syllable Type: Open&& Syllable Type: Vowel Team&& ad- (a-, al-, ac-, af-, ap-, ar-, as-, an-, ag-, at-)&& -duc(e)-/-duct-&& a-&& ee: /ē/ or /i/&&&& ə: /ə/&& Syllable Division: VC/V&& Syllable Division: V/CV&& Syllable Type: Closed&& Syllable Type: Open&& Syllable Type: Vowel Team&& ad- (a-, al-, ac-, af-, ap-, ar-, as-, an-, ag-, at-)&& -duc(e)-/-duct-&& a-&& ee: /ē/ or /i/&&&& Noun"
1028,ahead,2 Syllables,,,,,,,,,,,,,,,,"a-&& ad- (a-, al-, ac-, af-, ap-, ar-, as-, an-, ag-, at-)&& Syllable Division: V/CV&& Syllable Type: Open&& Syllable Type: Vowel Team&& ea: /ĕ/ or /ɛ/&& Preposition"
1649,aid,1 Syllable,,,,,,,,,,,,,,,,Syllable Type: Vowel Team&& ai: /ā/ or /eɪ/&& d: /d/&& Noun&& Verb
1945,aim,1 Syllable,,,,,,,,,,,,,,,,Syllable Type: Vowel Team&& ai: /ā/ or /eɪ/&& m: /m/&& Noun&& Verb
371,air,1 Syllable,,,,,,,,,,,,,,,,Syllable Type: R-Controlled&& Syllable Type: Vowel Team&& ai: /ā/ or /eɪ/&& r: /r/&& Noun&& Verb&& Adjective
1780,airport,2 Syllables,,,,,,,,,,,,,,,,Syllable Division: VC/CV&& Syllable Type: Vowel Team&& Syllable Type: R-Controlled&& ai: /ā/ or /eɪ/&& or: /ôr/ or /ɔr/&& Noun&& Compound Words
1541,alive,2 Syllables,,,,,,,,,,,,,,,,"ə: /ə/&& Syllable Division: V/CV&& a-&& ad- (a-, al-, ac-, af-, ap-, ar-, as-, an-, ag-, at-)&& Syllable Type: Open&& Syllable Type: Silent <e>&& i-e: /ī/ or /aɪ/&& Adjective"
43,all,1 Syllable,,,,,,,,,,,,,,,,all: /ôl/ or /ɔl/&& Syllable Type: Closed
340,allow,2 Syllables,,,,,,,,,,,,,,,,"ə: /ə/&& ad- (a-, al-, ac-, af-, ap-, ar-, as-, an-, ag-, at-)&& Syllable Division: VC/CV&& Syllable Type: Closed&& Syllable Type: Vowel Team&& ə: /ə/&& ow: /ou/ or /aʊ/&& Verb&& u: /ŭ/ or /ə/"
292,almost,2 Syllables,,,,,,,,,,,,,,,,Syllable Division: VC/CV
